   {
      "limit": 20,
      "offset": 0,
      "sortBy": "-publishedOn",
      "totalDocs": 36,
      "totalPages": 2,
      "currentPage": 1,
      "hasNextPage": true,
      "nodes": [
        {
          "id": "6db4301c-bc6e-41cb-98ca-d0149c51817f",
          "publishedOn": 1601191200000,
          "lastUpdatedAt": 1603831220541,
          "title": "Rimappatura centralina auto: pro/contro + aspetti legali",
          "description": "Tutto sulla rimappatura centralina auto",
          "author": {
            "id": "a6640823-56cf-4b60-8dd9-c3b9f009e64a",
            "firstName": "Alessandro",
            "email": null
          },
          "category": {
            "id": "95c4847d-9871-4808-a415-af212f6618d2",
            "slug": "problemi-all-auto"
          },
          "image": {
            "id": "d5a462a5-a591-4201-9109-8d40e988de44",
            "alt": "Centralina auto rimappatura chip",
            "fullPath": "https://storage.googleapis.com/static.meccamico.com/nullsqjecay1kqa.jpg"
          },
          "related": [
            {
              "id": "2f976ba2-3b1f-45b7-b954-859d8ce038c1",
              "alt": null
            },
            {
              "id": "eb47ea56-8426-44d5-8953-22c07e9f14b4",
              "alt": null
            },
            {
              "id": "8e7a4c87-80d8-426a-8fc2-418490ec13a7",
              "alt": null
            },
            {
              "id": "4df80aa1-2ae9-4a07-a3fa-81cf5f7d1bee",
              "alt": null
            }
          ]
        },
        {
          "id": "99c44dc2-4023-4ccb-965b-9534e07dccd9",
          "publishedOn": 1600153200000,
          "lastUpdatedAt": 1603831729539,
          "title": "Sanificazione auto: cos'è, dove si fa e quanto costa?",
          "description": "Scopriamo la sanificazione auto",
          "author": {
            "id": "a6640823-56cf-4b60-8dd9-c3b9f009e64a",
            "firstName": "Alessandro",
            "email": null
          },
          "category": {
            "id": "95c4847d-9871-4808-a415-af212f6618d2",
            "slug": "problemi-all-auto"
          },
          "image": {
            "id": "d09f57d8-38bf-4b62-8b1a-c841e0848cee",
            "alt": "Meccanico che annota dettagli auto",
            "fullPath": "https://storage.googleapis.com/static.meccamico.com/ivvtgl8y4ce.jpg"
          },
          "related": [
            {
              "id": "bec3775f-9057-4924-903b-44ff1177b0ee",
              "alt": null
            },
            {
              "id": "6db4301c-bc6e-41cb-98ca-d0149c51817f",
              "alt": null
            },
            {
              "id": "c7641d4a-8ecc-4990-bdba-c4df3960d751",
              "alt": null
            },
            {
              "id": "c4eb91a3-cdf9-4393-87f1-bb5bfd70ac2f",
              "alt": null
            }
          ]
        },
        {
          "id": "9b1be75c-9c43-4f10-a22b-d786fb2cab3f",
          "publishedOn": 1599721500000,
          "lastUpdatedAt": 1603831323431,
          "title": "Area B Milano: ecco la mappa dettagliata e i varchi",
          "description": "Tutto sull'Area B di Milano.",
          "author": {
            "id": "a6640823-56cf-4b60-8dd9-c3b9f009e64a",
            "firstName": "Alessandro",
            "email": null
          },
          "category": {
            "id": "406c3a53-09e3-447b-91bf-799f843982a4",
            "slug": "muoversi-a-milano"
          },
          "image": {
            "id": "bdd53a5c-1e2b-48c4-9484-a8deb31f8a48",
            "alt": "Illustrazione AreaB Milano",
            "fullPath": "https://storage.googleapis.com/static.meccamico.com/nullffkebk4qis9.jpg"
          },
          "related": [
            {
              "id": "0b220889-1db9-498b-b2c2-6bc093ac085d",
              "alt": null
            },
            {
              "id": "a7182cb0-7a30-4681-bf93-2c90720ae51b",
              "alt": "adsf"
            },
            {
              "id": "c4eb91a3-cdf9-4393-87f1-bb5bfd70ac2f",
              "alt": null
            },
            {
              "id": "bec3775f-9057-4924-903b-44ff1177b0ee",
              "alt": null
            }
          ]
        },
        {
          "id": "07128ded-ee08-483b-bdfe-6aa37ea98e5b",
          "publishedOn": 1598888100000,
          "lastUpdatedAt": 1603832464200,
          "title": "Tagliando Auto: ecco la Guida Definitiva (2020)",
          "description": "La Guida Definitiva al Tagliando Auto",
          "author": {
            "id": "a6640823-56cf-4b60-8dd9-c3b9f009e64a",
            "firstName": "Alessandro",
            "email": null
          },
          "category": {
            "id": "95c4847d-9871-4808-a415-af212f6618d2",
            "slug": "problemi-all-auto"
          },
          "image": {
            "id": "e3815d4b-a0a1-4081-be9c-ddbacfb7b4d3",
            "alt": "Tagliando auto 2020",
            "fullPath": "https://storage.googleapis.com/static.meccamico.com/nullb8sc3f1pst.jpg"
          },
          "related": [
            {
              "id": "60035550-3b92-4197-824a-f5b535681cbb",
              "alt": null
            },
            {
              "id": "eb47ea56-8426-44d5-8953-22c07e9f14b4",
              "alt": null
            },
            {
              "id": "3052e6fd-5530-4cad-bd83-d31d1cff41fe",
              "alt": null
            },
            {
              "id": "9b1be75c-9c43-4f10-a22b-d786fb2cab3f",
              "alt": null
            }
          ]
        },
        {
          "id": "8e7a4c87-80d8-426a-8fc2-418490ec13a7",
          "publishedOn": 1598887200000,
          "lastUpdatedAt": 1603837693173,
          "title": "Cinghia di Distribuzione: ecco la Guida Definitiva (2020)",
          "description": "La Guida Definitiva alla Cinghia di Distribuzione",
          "author": {
            "id": "a6640823-56cf-4b60-8dd9-c3b9f009e64a",
            "firstName": "Alessandro",
            "email": null
          },
          "category": {
            "id": "95c4847d-9871-4808-a415-af212f6618d2",
            "slug": "problemi-all-auto"
          },
          "image": {
            "id": "29087ee6-84e5-48b2-9301-7630519f579e",
            "alt": "Cinghia di distribuzione su motore",
            "fullPath": "https://storage.googleapis.com/static.meccamico.com/nulltquv4abky9h.jpg"
          },
          "related": [
            {
              "id": "a7182cb0-7a30-4681-bf93-2c90720ae51b",
              "alt": "adsf"
            },
            {
              "id": "6db4301c-bc6e-41cb-98ca-d0149c51817f",
              "alt": null
            },
            {
              "id": "25e0b35c-1c1d-4df3-8d33-05251814d862",
              "alt": null
            },
            {
              "id": "48e4659d-33ff-4ab5-bf38-5f2913136ad3",
              "alt": null
            }
          ]
        },
        {
          "id": "bec3775f-9057-4924-903b-44ff1177b0ee",
          "publishedOn": 1596744600000,
          "lastUpdatedAt": 1603988863510,
          "title": "Sintomi candela bruciata auto: quali sono e cosa fare?",
          "description": "Candele bruciate causano problemi di accensione e combustione, ecco i sintomi.",
          "author": {
            "id": "a6640823-56cf-4b60-8dd9-c3b9f009e64a",
            "firstName": "Alessandro",
            "email": null
          },
          "category": {
            "id": "95c4847d-9871-4808-a415-af212f6618d2",
            "slug": "problemi-all-auto"
          },
          "image": {
            "id": "9fc3d4f3-35a7-4867-a91b-cd93d667d044",
            "alt": "Candela bruciata dell'auto",
            "fullPath": "https://storage.googleapis.com/static.meccamico.com/nullumdmxj6hub.jpg"
          },
          "related": [
            {
              "id": "a7182cb0-7a30-4681-bf93-2c90720ae51b",
              "alt": "adsf"
            },
            {
              "id": "12ea0eb9-9c47-44e9-9984-4b83ce5f9166",
              "alt": null
            },
            {
              "id": "a9a1648b-397f-4db3-8019-3e046a80e5f2",
              "alt": null
            },
            {
              "id": "0b220889-1db9-498b-b2c2-6bc093ac085d",
              "alt": null
            }
          ]
        },
        {
          "id": "f0c74bcd-3913-4f45-b1a9-b843d292cb25",
          "publishedOn": 1596612000000,
          "lastUpdatedAt": 1603989776104,
          "title": "Polish auto: quale tipo scegliere e come si applica?",
          "description": "Tutto sul polish auto.",
          "author": {
            "id": "a6640823-56cf-4b60-8dd9-c3b9f009e64a",
            "firstName": "Alessandro",
            "email": null
          },
          "category": {
            "id": "95c4847d-9871-4808-a415-af212f6618d2",
            "slug": "problemi-all-auto"
          },
          "image": {
            "id": "1ffb1e8d-7b50-44ab-8d2b-1d5fff692de2",
            "alt": "Polish auto applicato sulla carrozzeria",
            "fullPath": "https://storage.googleapis.com/static.meccamico.com/null9qulmiukwqm.jpg"
          },
          "related": [
            {
              "id": "2af29986-41d6-40de-bf22-f45124c02750",
              "alt": null
            },
            {
              "id": "0b220889-1db9-498b-b2c2-6bc093ac085d",
              "alt": null
            },
            {
              "id": "07128ded-ee08-483b-bdfe-6aa37ea98e5b",
              "alt": null
            },
            {
              "id": "2f976ba2-3b1f-45b7-b954-859d8ce038c1",
              "alt": null
            }
          ]
        },
        {
          "id": "bf98309e-4f8e-409e-b249-b7adf97f64a0",
          "publishedOn": 1595685900000,
          "lastUpdatedAt": 1604010172108,
          "title": "Spia olio accesa: cosa fare per salvaguardare il motore?",
          "description": "Scopri perché la spia rossa dell'olio si è accesa sul tuo cruscotto, cosa significa e quali problemi può indicare.",
          "author": {
            "id": "a6640823-56cf-4b60-8dd9-c3b9f009e64a",
            "firstName": "Alessandro",
            "email": null
          },
          "category": {
            "id": "95c4847d-9871-4808-a415-af212f6618d2",
            "slug": "problemi-all-auto"
          },
          "image": {
            "id": "cab8e1fa-3d9b-4c52-92aa-4776deb87098",
            "alt": "Olio motore versato nel motore",
            "fullPath": "https://storage.googleapis.com/static.meccamico.com/nullgi4o2cbl47b.jpg"
          },
          "related": [
            {
              "id": "dd2fab79-2769-4f3c-93f2-ffac079fd166",
              "alt": null
            },
            {
              "id": "01a9800e-d9a5-4748-81d0-3d7249ef7387",
              "alt": null
            },
            {
              "id": "0b220889-1db9-498b-b2c2-6bc093ac085d",
              "alt": null
            },
            {
              "id": "9b1be75c-9c43-4f10-a22b-d786fb2cab3f",
              "alt": null
            }
          ]
        },
        {
          "id": "f96369ec-972c-4ac1-9a45-d31fe26ffb88",
          "publishedOn": 1593794100000,
          "lastUpdatedAt": 1603990466386,
          "title": "Cambio olio motore: ogni quanto tempo? Ecco i dettagli!",
          "description": "Tutte le informazioni su quando bisogna cambiare l'olio motore.",
          "author": {
            "id": "a6640823-56cf-4b60-8dd9-c3b9f009e64a",
            "firstName": "Alessandro",
            "email": null
          },
          "category": {
            "id": "95c4847d-9871-4808-a415-af212f6618d2",
            "slug": "problemi-all-auto"
          },
          "image": {
            "id": "d5a18155-06ad-49f7-9d52-5970d143d88e",
            "alt": "Olio motore versato durante il cambio",
            "fullPath": "https://storage.googleapis.com/static.meccamico.com/nullrl8v9v0znt.jpg"
          },
          "related": [
            {
              "id": "9b1be75c-9c43-4f10-a22b-d786fb2cab3f",
              "alt": null
            },
            {
              "id": "dd56fc51-be83-402b-acd1-a131ce97b370",
              "alt": null
            },
            {
              "id": "4df80aa1-2ae9-4a07-a3fa-81cf5f7d1bee",
              "alt": null
            },
            {
              "id": "dd2fab79-2769-4f3c-93f2-ffac079fd166",
              "alt": null
            }
          ]
        },
        {
          "id": "cb128e25-6602-4010-a0cd-753b2fdf8c5a",
          "publishedOn": 1593329700000,
          "lastUpdatedAt": 1604010489391,
          "title": "Revisione Moto: ogni quanto si fa, dove e quanto costa",
          "description": "Tutto sulla revisione moto 2020.",
          "author": {
            "id": "a6640823-56cf-4b60-8dd9-c3b9f009e64a",
            "firstName": "Alessandro",
            "email": null
          },
          "category": {
            "id": "95c4847d-9871-4808-a415-af212f6618d2",
            "slug": "problemi-all-auto"
          },
          "image": {
            "id": "e5601251-79d9-4d4d-b49b-e4f9e9d62bc9",
            "alt": "Revisione moto",
            "fullPath": "https://storage.googleapis.com/static.meccamico.com/nulldoq0s919dwa.jpg"
          },
          "related": [
            {
              "id": "4df80aa1-2ae9-4a07-a3fa-81cf5f7d1bee",
              "alt": null
            },
            {
              "id": "77137c09-9054-4e1b-930a-e69ac7406d83",
              "alt": null
            },
            {
              "id": "a7182cb0-7a30-4681-bf93-2c90720ae51b",
              "alt": "adsf"
            },
            {
              "id": "8e7a4c87-80d8-426a-8fc2-418490ec13a7",
              "alt": null
            }
          ]
        },
        {
          "id": "c7641d4a-8ecc-4990-bdba-c4df3960d751",
          "publishedOn": 1589735700000,
          "lastUpdatedAt": 1604010027288,
          "title": "Quanto costa cambiare olio + filtro alla macchina?",
          "description": "Quanto costa e cosa include il cambio olio motore.",
          "author": {
            "id": "a6640823-56cf-4b60-8dd9-c3b9f009e64a",
            "firstName": "Alessandro",
            "email": null
          },
          "category": {
            "id": "95c4847d-9871-4808-a415-af212f6618d2",
            "slug": "problemi-all-auto"
          },
          "image": {
            "id": "a231d975-a759-45b3-b345-3d4b7f04f0a6",
            "alt": "Cambio dell'olio motore",
            "fullPath": "https://storage.googleapis.com/static.meccamico.com/nullafayv7w98ka.jpg"
          },
          "related": [
            {
              "id": "cb128e25-6602-4010-a0cd-753b2fdf8c5a",
              "alt": null
            },
            {
              "id": "c4eb91a3-cdf9-4393-87f1-bb5bfd70ac2f",
              "alt": null
            },
            {
              "id": "01a9800e-d9a5-4748-81d0-3d7249ef7387",
              "alt": null
            },
            {
              "id": "07128ded-ee08-483b-bdfe-6aa37ea98e5b",
              "alt": null
            }
          ]
        },
        {
          "id": "01a9800e-d9a5-4748-81d0-3d7249ef7387",
          "publishedOn": 1589354400000,
          "lastUpdatedAt": 1603838496470,
          "title": "Primo tagliando auto: a quanti km va fatto? si paga?",
          "description": "Tutti i dettagli sul primo tagliando dell'auto",
          "author": {
            "id": "a6640823-56cf-4b60-8dd9-c3b9f009e64a",
            "firstName": "Alessandro",
            "email": null
          },
          "category": {
            "id": "95c4847d-9871-4808-a415-af212f6618d2",
            "slug": "problemi-all-auto"
          },
          "image": {
            "id": "6a9d70c6-2648-4edd-938c-f11bc029ee3f",
            "alt": "Ispezione motore",
            "fullPath": "https://storage.googleapis.com/static.meccamico.com/nullpberr5bcev.jpg"
          },
          "related": [
            {
              "id": "07128ded-ee08-483b-bdfe-6aa37ea98e5b",
              "alt": null
            },
            {
              "id": "a7182cb0-7a30-4681-bf93-2c90720ae51b",
              "alt": "adsf"
            },
            {
              "id": "dd56fc51-be83-402b-acd1-a131ce97b370",
              "alt": null
            },
            {
              "id": "77137c09-9054-4e1b-930a-e69ac7406d83",
              "alt": null
            }
          ]
        },
        {
          "id": "60035550-3b92-4197-824a-f5b535681cbb",
          "publishedOn": 1589007900000,
          "lastUpdatedAt": 1603990056420,
          "title": "Tagliando auto in garanzia e autofficine indipendenti: si può?",
          "description": "Tagliando auto, officine indipendenti e perdita di garanzia, vediamo i dettagli.",
          "author": {
            "id": "a6640823-56cf-4b60-8dd9-c3b9f009e64a",
            "firstName": "Alessandro",
            "email": null
          },
          "category": {
            "id": "95c4847d-9871-4808-a415-af212f6618d2",
            "slug": "problemi-all-auto"
          },
          "image": {
            "id": "a7de365f-3d51-40f9-a707-d73993bfb24c",
            "alt": "Ragazzo seduto davanti ad un'auto in panne",
            "fullPath": "https://storage.googleapis.com/static.meccamico.com/nullcgj8pu4gp54.jpg"
          },
          "related": [
            {
              "id": "2af29986-41d6-40de-bf22-f45124c02750",
              "alt": null
            },
            {
              "id": "12ea0eb9-9c47-44e9-9984-4b83ce5f9166",
              "alt": null
            },
            {
              "id": "f6e63cb4-d097-471b-a9cd-4aacdf91ad61",
              "alt": null
            },
            {
              "id": "01a9800e-d9a5-4748-81d0-3d7249ef7387",
              "alt": null
            }
          ]
        },
        {
          "id": "a9a1648b-397f-4db3-8019-3e046a80e5f2",
          "publishedOn": 1588781400000,
          "lastUpdatedAt": 1604009855096,
          "title": "Sostituzione pastiglie freni: quanto costa e quando farla?",
          "description": "Il cambio delle pastiglie dei freni è importantissimo per la nostra sicurezza. Scopriamo il costo e vediamo i dettagli.",
          "author": {
            "id": "a6640823-56cf-4b60-8dd9-c3b9f009e64a",
            "firstName": "Alessandro",
            "email": null
          },
          "category": {
            "id": "95c4847d-9871-4808-a415-af212f6618d2",
            "slug": "problemi-all-auto"
          },
          "image": {
            "id": "10e75a56-6dc2-472e-9d95-156e242ad695",
            "alt": "Cambio delle pastiglie dei freni",
            "fullPath": "https://storage.googleapis.com/static.meccamico.com/null4rtfzz1ebxk.jpg"
          },
          "related": [
            {
              "id": "c4eb91a3-cdf9-4393-87f1-bb5bfd70ac2f",
              "alt": null
            },
            {
              "id": "f6e63cb4-d097-471b-a9cd-4aacdf91ad61",
              "alt": null
            },
            {
              "id": "bec3775f-9057-4924-903b-44ff1177b0ee",
              "alt": null
            },
            {
              "id": "0b220889-1db9-498b-b2c2-6bc093ac085d",
              "alt": null
            }
          ]
        },
        {
          "id": "dd2fab79-2769-4f3c-93f2-ffac079fd166",
          "publishedOn": 1588761000000,
          "lastUpdatedAt": 1604010396632,
          "title": "Batteria auto scarica: i 9 sintomi definitivi e le cause",
          "description": "Batteria auto scarica? ecco tutti i sintomi",
          "author": {
            "id": "a6640823-56cf-4b60-8dd9-c3b9f009e64a",
            "firstName": "Alessandro",
            "email": null
          },
          "category": {
            "id": "95c4847d-9871-4808-a415-af212f6618d2",
            "slug": "problemi-all-auto"
          },
          "image": {
            "id": "cc638be5-f8d0-4941-8c99-3159ea5ac4cf",
            "alt": "Batteria auto scarica",
            "fullPath": "https://storage.googleapis.com/static.meccamico.com/nullsihx8fvxce8.jpg"
          },
          "related": [
            {
              "id": "0b220889-1db9-498b-b2c2-6bc093ac085d",
              "alt": null
            },
            {
              "id": "f96369ec-972c-4ac1-9a45-d31fe26ffb88",
              "alt": null
            },
            {
              "id": "3052e6fd-5530-4cad-bd83-d31d1cff41fe",
              "alt": null
            },
            {
              "id": "0d77e06a-1f7a-473d-86a3-c4345bd2be74",
              "alt": null
            }
          ]
        },
        {
          "id": "77137c09-9054-4e1b-930a-e69ac7406d83",
          "publishedOn": 1588759500000,
          "lastUpdatedAt": 1603989177349,
          "title": "Durata batteria auto: quanti anni dura e come allungarla?",
          "description": "Vediamo la durata batteria auto e come fare a prolungarla.",
          "author": {
            "id": "a6640823-56cf-4b60-8dd9-c3b9f009e64a",
            "firstName": "Alessandro",
            "email": null
          },
          "category": {
            "id": "fc82fe54-98df-4f65-9ac5-6cddb6cef850",
            "slug": "fondamentali-dell-auto"
          },
          "image": {
            "id": "54b1f170-f971-4edc-b19e-39e18a48f600",
            "alt": "Test della batteria auto",
            "fullPath": "https://storage.googleapis.com/static.meccamico.com/nullb8rjbyrrgr.jpg"
          },
          "related": [
            {
              "id": "0d77e06a-1f7a-473d-86a3-c4345bd2be74",
              "alt": null
            },
            {
              "id": "2af29986-41d6-40de-bf22-f45124c02750",
              "alt": null
            },
            {
              "id": "12ea0eb9-9c47-44e9-9984-4b83ce5f9166",
              "alt": null
            },
            {
              "id": "9b1be75c-9c43-4f10-a22b-d786fb2cab3f",
              "alt": null
            }
          ]
        },
        {
          "id": "2af29986-41d6-40de-bf22-f45124c02750",
          "publishedOn": 1588690800000,
          "lastUpdatedAt": 1603989392196,
          "title": "Graffi sulla carrozzeria? Ecco come eliminarli!",
          "description": "Eliminare i graffi della carrozzeria da soli.",
          "author": {
            "id": "a6640823-56cf-4b60-8dd9-c3b9f009e64a",
            "firstName": "Alessandro",
            "email": null
          },
          "category": {
            "id": "95c4847d-9871-4808-a415-af212f6618d2",
            "slug": "problemi-all-auto"
          },
          "image": {
            "id": "7673ee16-893c-45a4-957f-961b0d43b4d8",
            "alt": "Graffi sulla carrozzeria dell'auto",
            "fullPath": "https://storage.googleapis.com/static.meccamico.com/nullu135qpg8c4.jpg"
          },
          "related": [
            {
              "id": "bec3775f-9057-4924-903b-44ff1177b0ee",
              "alt": null
            },
            {
              "id": "0b220889-1db9-498b-b2c2-6bc093ac085d",
              "alt": null
            },
            {
              "id": "8e7a4c87-80d8-426a-8fc2-418490ec13a7",
              "alt": null
            },
            {
              "id": "60035550-3b92-4197-824a-f5b535681cbb",
              "alt": null
            }
          ]
        },
        {
          "id": "e8d53496-048a-4f05-9128-fb644da04632",
          "publishedOn": 1586072100000,
          "lastUpdatedAt": 1603838060611,
          "title": "Quanto costa la sostituzione degli ammortizzatori auto?",
          "description": "Ecco quanto costa cambiare gli ammortizzatori auto.",
          "author": {
            "id": "a6640823-56cf-4b60-8dd9-c3b9f009e64a",
            "firstName": "Alessandro",
            "email": null
          },
          "category": {
            "id": "95c4847d-9871-4808-a415-af212f6618d2",
            "slug": "problemi-all-auto"
          },
          "image": {
            "id": "c33e3c1b-8206-4c89-9b33-3a111a46c308",
            "alt": "Sostituzione ammortizzatori auto",
            "fullPath": "https://storage.googleapis.com/static.meccamico.com/null9imrm39je04.jpg"
          },
          "related": [
            {
              "id": "9b1be75c-9c43-4f10-a22b-d786fb2cab3f",
              "alt": null
            },
            {
              "id": "dd56fc51-be83-402b-acd1-a131ce97b370",
              "alt": null
            },
            {
              "id": "f96369ec-972c-4ac1-9a45-d31fe26ffb88",
              "alt": null
            },
            {
              "id": "dd2fab79-2769-4f3c-93f2-ffac079fd166",
              "alt": null
            }
          ]
        },
        {
          "id": "2f976ba2-3b1f-45b7-b954-859d8ce038c1",
          "publishedOn": 1585898400000,
          "lastUpdatedAt": 1603838396292,
          "title": "Filtro abitacolo: quando sostituirlo e quanto costa?",
          "description": "Tutti i dettagli sul filtro abitacolo e sulla sua sostituzione.",
          "author": {
            "id": "a6640823-56cf-4b60-8dd9-c3b9f009e64a",
            "firstName": "Alessandro",
            "email": null
          },
          "category": {
            "id": "95c4847d-9871-4808-a415-af212f6618d2",
            "slug": "problemi-all-auto"
          },
          "image": {
            "id": "302e4d8c-7ce4-4199-828d-2900bfed302d",
            "alt": "Filtro abitacolo auto",
            "fullPath": "https://storage.googleapis.com/static.meccamico.com/nullv89fuhqzjca.jpg"
          },
          "related": [
            {
              "id": "554e9ee7-57a0-4415-812e-cbb9a506e94a",
              "alt": null
            },
            {
              "id": "60035550-3b92-4197-824a-f5b535681cbb",
              "alt": null
            },
            {
              "id": "cb128e25-6602-4010-a0cd-753b2fdf8c5a",
              "alt": null
            },
            {
              "id": "1375ef4b-c51f-46cb-bf4f-ff4ebbeed180",
              "alt": null
            }
          ]
        },
        {
          "id": "3052e6fd-5530-4cad-bd83-d31d1cff41fe",
          "publishedOn": 1585383600000,
          "lastUpdatedAt": 1603837902209,
          "title": "Cambio olio freni auto: quando farlo e quanto costa?",
          "description": "Tutti i dettagli sul cambio olio dei freni auto.",
          "author": {
            "id": "a6640823-56cf-4b60-8dd9-c3b9f009e64a",
            "firstName": "Alessandro",
            "email": null
          },
          "category": {
            "id": "95c4847d-9871-4808-a415-af212f6618d2",
            "slug": "problemi-all-auto"
          },
          "image": {
            "id": "a38b2b82-5c41-4930-bfd9-76cf9789935a",
            "alt": "Cambio olio freni auto",
            "fullPath": "https://storage.googleapis.com/static.meccamico.com/nullahs1p8fjs7p.jpg"
          },
          "related": [
            {
              "id": "bcefa88d-eb1b-4ab4-aab7-be29d8594c46",
              "alt": null
            },
            {
              "id": "f0c74bcd-3913-4f45-b1a9-b843d292cb25",
              "alt": null
            },
            {
              "id": "01a9800e-d9a5-4748-81d0-3d7249ef7387",
              "alt": null
            },
            {
              "id": "e8d53496-048a-4f05-9128-fb644da04632",
              "alt": null
            }
          ]
        }
      ]
    }
